{
    "name" : "",
    
    "mode" : "",
    
    "goal" : "",
    
    "elements" : 
    [
        {"type":"push", "param":"pink"},
        {"type":"push", "param":"greenish"},
        {"type":"push", "param":"orange"},
        {"type":"push", "param":"violet"}
    ],
    "tests" : 
    [ 
        ["pink","orange"]
    ],
    
    "trees":
    [
        [
            {"type":"pass"},  
            {"type":"pass"},
            {"type":"pass"},
            {"type":"pass"},
            {"type":"sys_exit", "param":["pink", "violet", "orange", "greenish"]}
        ]
    ]
}
